Success in Music: Exploratory Data Analysis
…
Moving onto Grammy Awards with this visualization, we can see what artist has won the most Grammy awards, in the major song and album categories, from 1999 to 2018. By 2018, Adele had the most Grammys, at a total of 12 awards. She is followed by Eminem with a total of 11 awards, then the band U2 and Alicia Keys are tied for third with 9 awards each. Something interesting to note is that there is not a ton of overlap between top Grammy-award-winning artists and Billboard Hot 100 artists. The artists who appear to be towards the top of both lists are Taylor Swift, Eminem, and Beyonce.

Multivariate Analysis

It could be interesting to see if there is any relationship between the Billboard Hot 100 and the Grammy Awards. For instance, if an artist is dominating the Billboard Hot 100 in a given year, are they more likely to win a Grammy? If an artist won multiple Grammy’s that year, are they then, in turn, dominating the Billboard Hot 100?

# A tibble: 26 × 3
   `Artist with Most Grammy Wins`  year Artist with #1 Song On Billboard Hot 1…¹
   <chr>                          <dbl> <chr>                                   
 1 Santana                         1999 Santana                                 
 2 Steely Dan                      2000 Santana                                 
 3 Alicia Keys                     2001 Janet                                   
 4 U2                              2001 Janet                                   
 5 Norah Jones                     2002 Nelly                                   
 6 Luther Vandross                 2003 Beyonce                                 
 7 Various Artists                 2003 Beyonce                                 
 8 Various Artists                 2004 Usher                                   
 9 Various Artists                 2005 Mariah Carey                            
10 Dixie Chicks                    2006 Justin Timberlake                       
# … with 16 more rows, and abbreviated variable name
#   ¹​`Artist with #1 Song On Billboard Hot 100 The Most`
…
