Final Project Check-Up Memo
…
Code

taylor_charts <- charts %>% 
  filter(str_detect(artists, pattern = "Taylor Swift")) %>% 
  mutate(name = str_replace(name, "Taylor's Version", "TV"),
         name = str_replace(name, "From The Vault", "FTV")) %>% 
  select(name, artists, country, date, position, streams)

taylor_charts

# A tibble: 16,708 × 6
   name                       artists         country date       posit…¹ streams
   <chr>                      <chr>           <chr>   <date>       <dbl>   <dbl>
 1 It’s Nice To Have A Friend ['Taylor Swift… global  2019-08-23      44 1801520
 2 It’s Nice To Have A Friend ['Taylor Swift… global  2019-08-24      63 1234566
 3 It’s Nice To Have A Friend ['Taylor Swift… global  2019-08-25      72  979257
 4 It’s Nice To Have A Friend ['Taylor Swift… global  2019-08-26      67 1083248
 5 It’s Nice To Have A Friend ['Taylor Swift… global  2019-08-27      97  939042
 6 It’s Nice To Have A Friend ['Taylor Swift… global  2019-08-28     117  863392
 7 It’s Nice To Have A Friend ['Taylor Swift… global  2019-08-29     152  779063
 8 It’s Nice To Have A Friend ['Taylor Swift… us      2019-08-23      23 1016790
 9 It’s Nice To Have A Friend ['Taylor Swift… us      2019-08-24      34  659588
10 It’s Nice To Have A Friend ['Taylor Swift… us      2019-08-25      41  502489
# … with 16,698 more rows, and abbreviated variable name ¹​position
…
Code

# trying to join datasets, but issues with the artists strings not exactly matching
charts2<- charts %>% 
  mutate(artists <- str_replace(artists, "\\[\\'.*\\'\\]", "r"))

charts2

# A tibble: 626,475 × 11
   track_id     name  country date       posit…¹ streams artists artis…² durat…³
   <chr>        <chr> <chr>   <date>       <dbl>   <dbl> <chr>   <chr>     <dbl>
 1 7GMeRGZax4u… It W… br      2015-03-17     138    6584 ['Maro… ['pop']  239920
 2 7GMeRGZax4u… It W… br      2015-03-18     132    6963 ['Maro… ['pop']  239920
 3 7GMeRGZax4u… It W… br      2015-03-19     128    7049 ['Maro… ['pop']  239920
 4 7GMeRGZax4u… It W… br      2015-03-20     152    6976 ['Maro… ['pop']  239920
 5 7GMeRGZax4u… It W… br      2015-03-21     160    6156 ['Maro… ['pop']  239920
 6 7GMeRGZax4u… It W… br      2015-03-23     120    6969 ['Maro… ['pop']  239920
 7 7GMeRGZax4u… It W… br      2015-06-01     172    7461 ['Maro… ['pop']  239920
 8 7GMeRGZax4u… It W… br      2015-06-03     200    7197 ['Maro… ['pop']  239920
 9 7GMeRGZax4u… It W… it      2015-03-17     136    4672 ['Maro… ['pop']  239920
10 7GMeRGZax4u… It W… it      2015-03-18     155    4002 ['Maro… ['pop']  239920
# … with 626,465 more rows, 2 more variables: explicit <lgl>,
#   `artists <- str_replace(artists, "\\\\[\\\\'.*\\\\'\\\\]", "r")` <chr>, and
#   abbreviated variable names ¹​position, ²​artist_genres, ³​duration
…
